Term,Number,Name,Link
Spring 2020,CS 266,Computer Animation II,ca2/S2020/index.html
Spring 2020,CS 191,Animation Fundamentals,af/S2020/index.html
Fall 2019,CS 174,Computer Animation I,ca1/F2019/index.html
Fall 2019,CS 327,Interdisciplinary Game Studio,http://irafay.com/classes/CS327/
Spring 2019,CS 266,Computer Animation II,ca2/S2019/index.html
Spring 2019,CS 174,Computer Animation I,https://moodle.hampshire.edu/course/view.php?id=6806
Fall 2018,CS 273,Animation Workshop,https://moodle.hampshire.edu/course/view.php?id=6581
Fall 2018,CS 174,Computer Animation I,https://moodle.hampshire.edu/course/view.php?id=6558
