date,type,class,due,assignment,screening,link,screening2,link
1/22/2020,INTRO,"Intro, overview, screening, discussion",,A1: Pre-requisite,Spring (Andy Goralzyk),https://youtu.be/WhWc3b3KhnY,Wires for Empathy, http://wiresforempathy.org/images/samples.mp4
1/27/2020,GEOM,Intro to sculpting,A1,A2: sculpt,,,,
1/29/2020,GEOM,Sculpting and retopology (poly build/modifiers/snaps),,,cubic tragedy,https://www.youtube.com/watch?v=FOOynE1F4P4,,
2/3/2020,GEOM,"modeling and deformation, deformation basics (weights, modifiers)",A2,A3: retopologize,theros,http://vimeo.com/1252427,,
2/5/2020,ARTIC,"control basics: constraints, drivers, IK",,,loom,https://vimeo.com/24069938,,
2/10/2020,ARTIC,"Autorigs, more rigging topics",A3,A4: rig the model,skylight,https://www.youtube.com/watch?v=6xGVyQu4HX0,,
2/12/2020,ARTIC,"camera rigs, character collections",,,confine/s,http://vimeo.com/22234982,,
2/17/2020,ANIM,"review 4,pose based approach to animation",,A5 (animated character) Keith lango articles,,,,
2/19/2020,ANIM,"character, pose based approach, contd.",,,,,,
2/24/2020,SHADE,"Review 4, simple U.V.s 3D Paint",A4,"A6 final movie, read Jeff Russel article on physically based rendering",,,,
2/26/2020,SHADE/LIGHT,"physically based rendering, the basics of photo exposure",,,Home Sweet Home,https://www.youtube.com/watch?v=aKRZn0uS6eA,,
3/2/2020,SHADE/LIGHT,"Advanced Materials, More rendering",A5,M0 final projet proposals,Countdown,http://vimeo.com/28760604,,
3/4/2020,,discuss final projects,,,,,,
3/9/2020,,"set up the final project, final project goal and idea workshop","M0,A6",,Balance,https://www.youtube.com/watch?v=1CTesYaduBA,,
3/11/2020,ANIM,Procedural animation with nodes,,,,,,
3/16/2020,,"Spring Break, No Class",,,,,,
3/18/2020,,"Spring Break, No Class",,,,,,
3/23/2020,,"Spring Break, No Class",,,,,,
3/25/2020,,"Spring Break, No Class",,,,,,
3/30/2020,,"blend shapes, face rigs, lip sync (prerecorded)",,,Alma,Spring,,
4/1/2020,ANIM/ARTIC,Milestone 1 reviews,M1,M2,The third and the seventh,https://vimeo.com/7809605,making of,https://vimeo.com/8200251
4/6/2020,SIM,"dynamics, particles (prerecorded)",,,,,,
4/8/2020,,Milestone 2 reviews,M2,M3,Caldera,https://vimeo.com/62596239,,
4/13/2020,,"Toon shading, Displacement (prerecorded)",,,Spring,Spring,,
4/15/2020,SHADE,3D Glitching (workshop),,,,,,
4/20/2020,,"continuity, editing, sequences (prerecorded)",,,read: tbs script,https://drive.google.com/open?id=0B4K7s9BPgeNmTmFvS0M1bGQ0VFk,,
4/22/2020,CAMERA,"multiple lights, volumentrics, lens flares etc (prerecorded)",,M3,el empleo,http://vimeo.com/32966847,,
4/27/2020,LIGHT,final project workshop,,,apres le pluie,http://vimeo.com/2336458,,
4/29/2020,,"Future stuff,Milestone 3 reviews: final screening",,,,,,
