date,Class,Due,Assignment,screening,link,screening2,link
01/22/20,"Intro: expectations, assets, software(open source)",,"A1: save an image, a 2D image, a movie and a 2D movie",Kairos§ Fan art recreation by (Daniel M Lara),https://youtu.be/SqyThycbqYg,In the Distance (lorian Grolig), https://vimeo.com/298166943
01/27/20,TECH: setting keyframes and animating in Blender,,"A2: Blocking workflow (view, respond)",,,,
01/29/20,"ANIM: Animation Principles, camera setup 1",A1,A3: Invent a principle and animate with it,Principles of Animation,https://www.youtube.com/watch?v=yiGY0qiy8fY,,
02/03/20,Ease in and Ease out,"A2,A3",A4: Easing excersizes,,,,
02/05/20,Squash and Stretch,,,,,,
02/10/20,Bouncing Ball,A4,A5: Bouncing Ball,,,,
02/12/20,"Interaction of principles, Anticipation",,,,,,
02/17/20,Bouncing Balls review,A5,A6: Bouncing Ball Second Pass,,,,
02/19/20,"Follow Through, Holds",,,,,,
02/24/20,Review A6,A6,,,,,
02/26/20,"Blocking Animation, timing, planning",,,,,,
03/02/20,Review A7,,,,,,
03/04/20,"final projects,more planning",,A7: Bouncing Ball with Tail/ Walkcycle,,,,
03/09/20,Review A7,,,,,,
03/11/20,Setup the final Project,A7,,,,,
03/16/20,"Spring Break, No Class",,,,,,
03/18/20,"Spring Break, No Class",,,,,,
03/23/20,"Spring Break, No Class",,,,,,
03/25/20,"Spring Break, No Class",,,,,,
03/30/20,"2D+3D (recorded), Weight Workshop (remote)",W4,M1: Final project proposal,,,,
04/01/20,Blocking/ Planning revisited (remote),,,,,,
04/06/20,Using Layers and Rigs (remote),M1,M2: Milestone 2,,,,
04/08/20,Milestone 2 reviews,M2,M2,,,,
04/13/20,"Toon shading, Displacement,",,,,,,
04/15/20,Milestone 3 reviews,M3,M3,,,,
04/20/20,"continuity, editing, sequences",,,,,,
04/22/20,Milestone 4 reviews,M4,M4,,,,
04/27/20,FP project workshop,,,,,,
04/29/20,Future Ideas(recorded) Final screening,M5,M5,,,,
